%YAML 1.1
%TAG !u! tag:unity3d.com,2011:
--- !u!114 &11400000
MonoBehaviour:
  m_ObjectHideFlags: 0
  m_CorrespondingSourceObject: {fileID: 0}
  m_PrefabInternal: {fileID: 0}
  m_GameObject: {fileID: 0}
  m_Enabled: 1
  m_EditorHideFlags: 0
  m_Script: {fileID: 11500000, guid: 335e1d4fae36c284b8d4dfce0c35c324, type: 3}
  m_Name: Skill Card Graphics
  m_EditorClassIdentifier: 
  enchantment: {fileID: 21300000, guid: 5a05743a4bf5a274f86534794a59a8d8, type: 3}
  enchantmentDisabled: {fileID: 21300000, guid: b247285dc78b0b342a1f2f5fcbfba63b,
    type: 3}
  feat: {fileID: 21300000, guid: c1f6429f9ec8ba444ab1fcc8fd4faed0, type: 3}
  featDisabled: {fileID: 21300000, guid: 8d39f1f18dd5c8e43b817b55f9a97c45, type: 3}
  item: {fileID: 21300000, guid: 307fd00a8a8098a4eada8a77b54aea4f, type: 3}
  itemDisabled: {fileID: 21300000, guid: a4571d703d8f3cf47ac5c969a9b2c264, type: 3}
  music: {fileID: 21300000, guid: f7562e8add94d3f41a18ad90ca015430, type: 3}
  musicDisabled: {fileID: 21300000, guid: 5e384808f88fa5149af2510ed4619f71, type: 3}
  reserve: {fileID: 21300000, guid: 10d26905110412e409a4dd0657bcd3da, type: 3}
  reserveDisabled: {fileID: 21300000, guid: 4dbaa26c654588a498a5c87fb6a8cdf3, type: 3}
  stance: {fileID: 21300000, guid: ef18a04b4a6660641b59c44779679bda, type: 3}
  stanceDisabled: {fileID: 21300000, guid: ef18a04b4a6660641b59c44779679bda, type: 3}
  neutral: {fileID: 21300000, guid: cb9bb8626b71c2c428a666fa3542f887, type: 3}
  neutralHover: {fileID: 0}
  friendly: {fileID: 21300000, guid: a708e663c2eed5a4ebf5ec506e2ba702, type: 3}
  friendlyHover: {fileID: 21300000, guid: a03c2249ac4514944a000ce591e1f324, type: 3}
  hostile: {fileID: 21300000, guid: cb1b62dd771538e41946f610f773eb3b, type: 3}
  hostileHover: {fileID: 21300000, guid: 8ee3a30ded6a503458f03a911682253f, type: 3}
  disabled: {fileID: 21300000, guid: 2a947a1010d9cd240848b402a076514d, type: 3}
  uiIconPrefab: {fileID: 11488856, guid: 019fbb7d9b3dad34497a55ca56baaa8c, type: 2}
  uiTitlePrefab: {fileID: 11462710, guid: 166b0e52b49d46843aa964220bab646a, type: 2}
  uiDescriptionPrefab: {fileID: 11431858, guid: fa5603164e611a74c95e4a1e6d5a3c28,
    type: 2}
