%YAML 1.1
%TAG !u! tag:unity3d.com,2011:
--- !u!1045 &1
EditorBuildSettings:
  m_ObjectHideFlags: 0
  serializedVersion: 2
  m_Scenes:
  - enabled: 1
    path: Assets/_Scenes/title_screen.unity
    guid: 077a89623b0f61940af67e623e362420
  - enabled: 1
    path: Assets/_Scenes/fintans_grave.unity
    guid: 089c4543f9b840d4e840e3b1f112201a
