%YAML 1.1
%TAG !u! tag:unity3d.com,2011:
--- !u!78 &1
TagManager:
  serializedVersion: 2
  tags:
  - Walkable
  - Area
  - Water
  - Fire
  - Tool
  - System
  - Database
  - Folder
  - PSpawner
  - Contains Model
  layers:
  - Default
  - TransparentFX
  - Ignore Raycast
  - 
  - Water
  - UI
  - 
  - 
  - 8
  - Debug
  - 10
  - 11
  - 12
  - 13
  - 14
  - 15
  - 16
  - 17
  - 18
  - 19
  - UI Model
  - 21
  - 22
  - 23
  - 24
  - 25
  - 26
  - 27
  - 28
  - 29
  - 30
  - 31
  m_SortingLayers:
  - name: Default
    uniqueID: 0
    locked: 0
