%YAML 1.1
%TAG !u! tag:unity3d.com,2011:
--- !u!114 &11400000
MonoBehaviour:
  m_ObjectHideFlags: 0
  m_PrefabParentObject: {fileID: 0}
  m_PrefabInternal: {fileID: 0}
  m_GameObject: {fileID: 0}
  m_Enabled: 1
  m_EditorHideFlags: 0
  m_Script: {fileID: 11500000, guid: 0dbaf3cbcd2a7b344be1113d8899582c, type: 3}
  m_Name: Eliminator
  m_EditorClassIdentifier: Assembly-CSharp::AbilityData
  entryType: 2
  depletesOnUse: 0
  mustBeReadied: 0
  usableFromInventory: 1
  usableFromQuickInventory: 1
  displayModel: {fileID: 100000, guid: 5334c927368739c44ad31cbe8f0cf4cf, type: 3}
  displayIcon: {fileID: 21300000, guid: 24004ebaa1ba6ff43bb38b09c5b3f9a8, type: 3}
  sortingName: 
  ability: {fileID: 114520345881139612, guid: 31337660644316c43a60b527aabafb7c, type: 2}
  displayName: 9
  description: 10
