%YAML 1.1
%TAG !u! tag:unity3d.com,2011:
--- !u!114 &11400000
MonoBehaviour:
  m_ObjectHideFlags: 0
  m_PrefabParentObject: {fileID: 0}
  m_PrefabInternal: {fileID: 0}
  m_GameObject: {fileID: 0}
  m_Enabled: 1
  m_EditorHideFlags: 0
  m_Script: {fileID: 11500000, guid: b1fc6a51654450c45a210274d4914828, type: 3}
  m_Name: Item Database
  m_EditorClassIdentifier: 
  abilities:
  - {fileID: 11400000, guid: e4b8adcf122f96b429287c65d892c041, type: 2}
  - {fileID: 11400000, guid: f90e11c5661689c4ea512f6e50a9ce70, type: 2}
  - {fileID: 11400000, guid: 2ef18c831bcf11040aa200dd4c22180e, type: 2}
  - {fileID: 11400000, guid: 42dc8521295a5504e83ea7bf29cb86df, type: 2}
  - {fileID: 11400000, guid: 5085a4b6aaea2b946989c10d6e07996a, type: 2}
  - {fileID: 11400000, guid: 1fb50b0f11a7d034b9ee76902226d646, type: 2}
  - {fileID: 11400000, guid: 142963ef5c5039e47859111bedee36c4, type: 2}
  - {fileID: 11400000, guid: a35c904387e6caf47a99bc124b334727, type: 2}
  - {fileID: 11400000, guid: 636fe30967acf9148aec45c02a5d3c85, type: 2}
  - {fileID: 11400000, guid: 54ed9a18a3845954c9ba039c0132fa0e, type: 2}
