%YAML 1.1
%TAG !u! tag:unity3d.com,2011:
--- !u!114 &11400000
MonoBehaviour:
  m_ObjectHideFlags: 0
  m_PrefabParentObject: {fileID: 0}
  m_PrefabInternal: {fileID: 0}
  m_GameObject: {fileID: 0}
  m_Enabled: 1
  m_EditorHideFlags: 0
  m_Script: {fileID: 11500000, guid: 0dbaf3cbcd2a7b344be1113d8899582c, type: 3}
  m_Name: Key to Pulley
  m_EditorClassIdentifier: 
  entryType: 1
  depletesOnUse: 1
  mustBeReadied: 0
  usableFromInventory: 1
  usableFromQuickInventory: 0
  displayModel: {fileID: 100004, guid: 82fc6e2bbc3994b49a574d010ba7190f, type: 3}
  displayIcon: {fileID: 0}
  sortingName: Key, Pulley
  ability: {fileID: 0}
  displayName: 14
  description: 15
