%YAML 1.1
%TAG !u! tag:unity3d.com,2011:
--- !u!114 &11400000
MonoBehaviour:
  m_ObjectHideFlags: 0
  m_CorrespondingSourceObject: {fileID: 0}
  m_PrefabInternal: {fileID: 0}
  m_GameObject: {fileID: 0}
  m_Enabled: 1
  m_EditorHideFlags: 0
  m_Script: {fileID: 11500000, guid: 0dbaf3cbcd2a7b344be1113d8899582c, type: 3}
  m_Name: Log Fungus
  m_EditorClassIdentifier: 
  entryType: 4
  depletesOnUse: 1
  mustBeReadied: 0
  usableFromInventory: 1
  usableFromQuickInventory: 1
  displayModel: {fileID: 100000, guid: 604c3c16929a92f41841eeef97fca6ff, type: 3}
  displayIcon: {fileID: 21300000, guid: 2c9bd8d67e951184cb2d4b4629f91d7c, type: 3}
  sortingName: 
  battleAction: {fileID: 114704503597269548, guid: 997333495d96a2447b27135117f53785,
    type: 2}
  ability: {fileID: 0}
  displayName: 27
  description: 0
