%YAML 1.1
%TAG !u! tag:unity3d.com,2011:
--- !u!114 &11400000
MonoBehaviour:
  m_ObjectHideFlags: 0
  m_PrefabParentObject: {fileID: 0}
  m_PrefabInternal: {fileID: 0}
  m_GameObject: {fileID: 0}
  m_Enabled: 1
  m_EditorHideFlags: 0
  m_Script: {fileID: 11500000, guid: 0dbaf3cbcd2a7b344be1113d8899582c, type: 3}
  m_Name: Rope
  m_EditorClassIdentifier: Assembly-CSharp::AbilityData
  entryType: 1
  depletesOnUse: 1
  mustBeReadied: 0
  usableFromInventory: 1
  usableFromQuickInventory: 1
  displayModel: {fileID: 100010, guid: 4b49c671d3a782c44bb60e46e2839ff3, type: 3}
  displayIcon: {fileID: 21300000, guid: f4875c7b8e1710641bf095639f3c93a9, type: 3}
  sortingName: 
  ability: {fileID: 114951550473097108, guid: b3775c67172cd3b44a77dc5518b87d1c, type: 2}
  displayName: 18
  description: 19
