%YAML 1.1
%TAG !u! tag:unity3d.com,2011:
--- !u!114 &11400000
MonoBehaviour:
  m_ObjectHideFlags: 0
  m_PrefabParentObject: {fileID: 0}
  m_PrefabInternal: {fileID: 0}
  m_GameObject: {fileID: 0}
  m_Enabled: 1
  m_EditorHideFlags: 0
  m_Script: {fileID: 11500000, guid: 0dbaf3cbcd2a7b344be1113d8899582c, type: 3}
  m_Name: Wooden Plank
  m_EditorClassIdentifier: 
  entryType: 1
  depletesOnUse: 1
  mustBeReadied: 0
  usableFromInventory: 1
  usableFromQuickInventory: 0
  displayModel: {fileID: 100000, guid: 08ab7404202cfd34c8e3e40c7a39b444, type: 3}
  displayIcon: {fileID: 21300000, guid: 171e059cfbb621f4ca47a8a509a9b625, type: 3}
  sortingName: 
  ability: {fileID: 114648483241582390, guid: 398abfe0ba5190d4794e50e0c1aab5ae, type: 2}
  displayName: 20
  description: 21
