%YAML 1.1
%TAG !u! tag:unity3d.com,2011:
--- !u!114 &11400000
MonoBehaviour:
  m_ObjectHideFlags: 0
  m_CorrespondingSourceObject: {fileID: 0}
  m_PrefabInternal: {fileID: 0}
  m_GameObject: {fileID: 0}
  m_Enabled: 1
  m_EditorHideFlags: 0
  m_Script: {fileID: 11500000, guid: 0dbaf3cbcd2a7b344be1113d8899582c, type: 3}
  m_Name: Phoenix Down
  m_EditorClassIdentifier: 
  entryType: 3
  depletesOnUse: 1
  mustBeReadied: 0
  usableFromInventory: 0
  usableFromQuickInventory: 0
  displayModel: {fileID: 0}
  displayIcon: {fileID: 0}
  sortingName: Phoenix Down
  battleAction: {fileID: 114704503597269548, guid: 997333495d96a2447b27135117f53785,
    type: 2}
  ability: {fileID: 0}
  displayName: 0
  description: 0
